;BusinessPartnerNo;CompanyName;City;PostalCode;Code;AliasName;FirstName;CountryCode;State;Address;PrimaryRoadType;PrimaryNumber;PrimaryIdentifier;PrimaryQuadrant;SecondaryNumber;SecondaryIdentifier;SecondaryQuadrant;PlateNumber;AdditionalInfo;Phone
0;900285758;C.I. NUTREO S.A.S.;;;85153780;andres hernandez;andres hernandez;CO;CUN;CR 58 138-63 TR 2 APTO 1001;;;;;;;;;;3002673023
1;900285758;C.I. NUTREO S.A.S.;;;32298528;VIVIANA HERNANDEZ GUZMAN;VIVIANA HERNANDEZ GUZMAN;CO;VAC;CL 23 D 1N 03 CJ MILAN CS 39;;;;;;;;;;3116433106
2;900285758;C.I. NUTREO S.A.S.;;;1144042793;Sol Anyela Muñoz Niño;Sol Anyela Muñoz Niño;CO;VAC;CL 17 NO 31 - 30 CS;;;;;;;;;;3005274655
3;900285758;C.I. NUTREO S.A.S.;;;18401549;Jairo Rico Rojas;Jairo Rico Rojas;CO;CAL;TV 72 NO 16 - 54 ;;;;;;;;;;3006155375
4;900285758;C.I. NUTREO S.A.S.;;;1018489821;Laura Paredes;Laura Paredes;CO;NAR;CR 40A 19A - 24 CAMPOS DE ARAGON 1103;;;;;;;;;;3508949379
5;900285758;C.I. NUTREO S.A.S.;;;1036932619;Jeiny Echeverri;Jeiny Echeverri;CO;VAC;CR 1 BIS 62 125 PORTAL DE LAS CSS 1 BL 5 CS 5;;;;;;;;;;3128305912
6;900285758;C.I. NUTREO S.A.S.;;;10525416;FRANCISCO PORTILLA;FRANCISCO PORTILLA;CO;CAU;CR 2 6-30 ;;;;;;;;;;3113734137
7;900285758;C.I. NUTREO S.A.S.;;;52869177;Monica Gutierrez;Monica Gutierrez;CO;CUN;CR 17A 175 - 82 TR 5 APTO 1501;;;;;;;;;;3167914968
8;900285758;C.I. NUTREO S.A.S.;;;1026256079;Philippe Fossaert;Philippe Fossaert;CO;CUN;CL 857-24 APTO 202;;;;;;;;;;3175730899
9;900285758;C.I. NUTREO S.A.S.;;;1020735342;LAURA JARAMILLO;LAURA JARAMILLO;CO;CUN;CL 146 NO 6-31 MZ 3 TR 1 APTO 402 402;;;;;;;;;;3108614288
10;900285758;C.I. NUTREO S.A.S.;;;46356957;Maria Claudia Avella Jimenez;Maria Claudia Avella Jimenez;CO;BOY;CL 29A 9A-31 CS BR EL RECREO;;;;;;;;;;3124577507
11;900285758;C.I. NUTREO S.A.S.;;;67020631;Catherine Escobar rodriguez;Catherine Escobar rodriguez;CO;VAC;CL 56 NO 4B-145 CS 19 A;;;;;;;;;;3217277619
12;900285758;C.I. NUTREO S.A.S.;;;1052378258;Astrid Parra León;Astrid Parra León;CO;CUN;CRA 99 69A-40 INT 3 APTO 503;;;;;;;;;;3115712058
13;900285758;C.I. NUTREO S.A.S.;;;117487349;Diana Maritza Home Papamija;Diana Maritza Home Papamija;CO;CAQ;"DG 27 N 24A 109 CJ TRS DE BARUC TR 3 APT 306
BR CIUDAD VERDE";;;;;;;;;;3223756872
14;900285758;C.I. NUTREO S.A.S.;;;94153438;Carlos GONZALEZ;Carlos GONZALEZ;CO;VAC;CR 19 28-76 LOCAL G-16 CC LA HERRADURA;;;;;;;;;;3218956456
15;900285758;C.I. NUTREO S.A.S.;;;21112392;María Amparo Ramírez;María Amparo Ramírez;CO;CUN;MZ I CS 136 BR PARAÍSO;;;;;;;;;;3105589768
16;900285758;C.I. NUTREO S.A.S.;;;80852331;Andrés Felipe Sánchez Pereira;Andrés Felipe Sánchez Pereira;CO;CUN;CR 77 19 - 87 TR 5 AP 603;;;;;;;;;;3007874370
17;900285758;C.I. NUTREO S.A.S.;;;1020815616;Natalia Peñalosa;Natalia Peñalosa;CO;CUN;CL 128D 21-19 APTO 801 TR 2;;;;;;;;;;3204835159
18;900285758;C.I. NUTREO S.A.S.;;;1062314250;Leidy Carolina Ijaji Imbachi;Leidy Carolina Ijaji Imbachi;CO;CAU;CL 7 10-15 BR CENTRO VIVERO ARTE NATURAL;;;;;;;;;;3168261694
19;900285758;C.I. NUTREO S.A.S.;;;25233895;Lina clemencia Franco Restrepo;Lina clemencia Franco Restrepo;CO;RIS;EN 4 VÍA PEREIRA CERRITOS CJ TIERRA QUIMBAYA CS 30;;;;;;;;;;3174353341
20;900285758;C.I. NUTREO S.A.S.;;;1018425801;Lau Gonzalez;Lau Gonzalez;CO;CUN;CL 119 70C-32 CS;;;;;;;;;;3002804078
21;900285758;C.I. NUTREO S.A.S.;;;52644118;Carmen Vergara Martinez;Carmen Vergara Martinez;CO;BOL;CL 72 Nº 10-45 CRESPO ED OCEAN DRIVE APTO 613;;;;;;;;;;3004966870
22;900285758;C.I. NUTREO S.A.S.;;;22585105;Olga González Benítez;Olga González Benítez;CO;ATL;CL 7950-20 ED SONAYMA APTO 13;;;;;;;;;;3192569999
23;900285758;C.I. NUTREO S.A.S.;;;53083744;Juliana Parra;Juliana Parra;CO;CUN;CRA 17 91 - 11 207;;;;;;;;;;3105703557
24;900285758;C.I. NUTREO S.A.S.;;;1014178465;Claudia Porras;Claudia Porras;CO;CUN;CL 70F 105I - 17 ;;;;;;;;;;3213547095
25;900285758;C.I. NUTREO S.A.S.;;;39689291;MONICA PATRICIA VEJARANO VELANDIA;MONICA PATRICIA VEJARANO VELANDIA;CO;CUN;CL 39 A 21 - 41 APTO 301 BR LA SOLEDAD - LOCALIDAD TEUSAQUILLO;;;;;;;;;;3153480893
26;900285758;C.I. NUTREO S.A.S.;;;1032423770;KELLY MEDINA;KELLY MEDINA;CO;ATL;TV 44 100 82 TR 7 APT 428 CJ TOZCANA;;;;;;;;;;3212211187
27;900285758;C.I. NUTREO S.A.S.;;;1075263161;lizeth vargas sanchez;lizeth vargas sanchez;CO;HUI;CL 22 SUR 21 58 APTO 103 TR 4 CJ RESERVA DE LOS TULIPANES;;;;;;;;;;3007571835
28;900285758;C.I. NUTREO S.A.S.;;;37395670;KARINA RIVERA;KARINA RIVERA;CO;BOL;CL 5 NO 13-117 APTO 101 EDIF CASTILLOGRANDE DE LOS REYES;;;;;;;;;;3186515959
29;900285758;C.I. NUTREO S.A.S.;;;52492512;Carolina Zamudio;Carolina Zamudio;CO;CUN;CL 136 59A -44 TR 3 AP 1102;;;;;;;;;;3178943359
30;900285758;C.I. NUTREO S.A.S.;;;52701598;Lorena Navas;Lorena Navas;CO;CUN;CL 92 14-56 APT 905;;;;;;;;;;7542347061
31;900285758;C.I. NUTREO S.A.S.;;;10240661;Julio cesar Aristizabal Gutierrez;Julio cesar Aristizabal Gutierrez;CO;QUI;CL 1 NORTE 13-43 ED PLAZUELA DE FUNDADORES;;;;;;;;;;3214401778
32;900285758;C.I. NUTREO S.A.S.;;;1095788289;Gustavo Adolfo Gonzalez Acevedo;Gustavo Adolfo Gonzalez Acevedo;CO;SAN;CRA 27A NO 122-27 CD LA FLORIDA TR 3 APTO 401;;;;;;;;;;3167592121
33;900285758;C.I. NUTREO S.A.S.;;;30401267;Mariana Restrepo salazar;Mariana Restrepo salazar;CO;CAL;CL 67 NO 28 B 36 ED BOSQUES DE CANTABRIA APTO 1101B;;;;;;;;;;3147711555
34;900285758;C.I. NUTREO S.A.S.;;;75104810;John Jairo Ospina Norena;John Jairo Ospina Norena;CO;CAL;CRA 22 NO 70A 101 APART 401A TRS ANDORRA;;;;;;;;;;3122962053
35;900285758;C.I. NUTREO S.A.S.;;;1130637416;Paola Andrea Flórez Aguirre;Paola Andrea Flórez Aguirre;CO;CUN;CR 55C 159-19 CSS DE CANTALEJO II INTERIOR 1 - CS 8;;;;;;;;;;3017544335
36;900285758;C.I. NUTREO S.A.S.;;;1026265993;Sebastian Ramirez;Sebastian Ramirez;CO;CUN;CL 106 14 81 BOGOTA APTO 305;;;;;;;;;;3106291219
37;900285758;C.I. NUTREO S.A.S.;;;21832853;Sandra Garces;Sandra Garces;CO;CUN;CR 17 88 12 APTO 501 ED LOS PALMOS;;;;;;;;;;3165251485
38;900285758;C.I. NUTREO S.A.S.;;;1020742879;Juan Camilo Gomez;Juan Camilo Gomez;CO;CUN;TV 1A 56-62 APTO 602;;;;;;;;;;3125417554
39;900285758;C.I. NUTREO S.A.S.;;;92187864;Alfredo De La Ossa Pineda;Alfredo De La Ossa Pineda;CO;BOL;DG36B 80M - 227 SALAMANDRA PARQUE HEREDÍA TR 1 APTO 303;;;;;;;;;;3215400594
40;900285758;C.I. NUTREO S.A.S.;;;28604441;Gloria Lucia Sepulveda Fernández;Gloria Lucia Sepulveda Fernández;CO;TOL;CL 122 50 SUR - 52 VIA BOGOTA CS 10 BR LOS REMANSOS LA TABLITA EN ENSEGUIDA COLEGIO BRITÁNICO ANTES DEL CLUB CAMPESTRE;;;;;;;;;;3153129559
41;900285758;C.I. NUTREO S.A.S.;;;66809230;ingrid david;ingrid david;CO;VAC;CL 13 108 - 100 APTO 703 TR 3 LAGOS DEL POLO 2;;;;;;;;;;3178539582
42;900285758;C.I. NUTREO S.A.S.;;;30401713;Juliana Paz;Juliana Paz;CO;CUN;CL 132 A NO 19 - 43 APTO 902 ED BLUE;;;;;;;;;;3128334154
43;900285758;C.I. NUTREO S.A.S.;;;52998411;Ana María Londoño Echeverri;Ana María Londoño Echeverri;CO;CUN;CL 155 14 - 80 APTO 402 TR 14;;;;;;;;;;3002262362
44;900285758;C.I. NUTREO S.A.S.;;;52265281;BEATRIZ Salazar;BEATRIZ Salazar;CO;CUN;CR 90 147B-22 AP 108 ED TR NIBO;;;;;;;;;;3123941340
45;900285758;C.I. NUTREO S.A.S.;;;1013628078;Luis Perilla;Luis Perilla;CO;CUN;CLL 52 SUR 37 81 BR FÁTIMA;;;;;;;;;;3132624902
46;900285758;C.I. NUTREO S.A.S.;;;20956626;Jaquelin Laverde Gonzalez;Jaquelin Laverde Gonzalez;CO;CUN;CRA 69 D 24-45 LOCAL 108 ;;;;;;;;;;3114711919
47;900285758;C.I. NUTREO S.A.S.;;;1143869846;Maria del Mar Botero Bolaños;Maria del Mar Botero Bolaños;CO;VAC;CL 10A 28-13 BR COLSEGUROS;;;;;;;;;;3178667248
48;900285758;C.I. NUTREO S.A.S.;;;63343265;Ingrid Parra Martinez;Ingrid Parra Martinez;CO;ANT;CL 24 SUR NÚMERO 38-91 APTO 1006 UN MONTCLAIRE LOMA LOS BENEDICTINOS;;;;;;;;;;3174606311
49;900285758;C.I. NUTREO S.A.S.;;;30331263;Andrea Robledo;Andrea Robledo;CO;CUN;CL 116 55C-40 1721;;;;;;;;;;3176578149
50;900285758;C.I. NUTREO S.A.S.;;;37513057;Yolanda Casadiego;Yolanda Casadiego;CO;ANT;CL 5G 32-190 QUINTA LADERA;;;;;;;;;;3125889482
51;900285758;C.I. NUTREO S.A.S.;;;1022328170;Andrea Lorena Beltran Beltran;Andrea Lorena Beltran Beltran;CO;CUN;CRA 78 6-61 SUR URB TECHO INTERIOR 14 APTO201;;;;;;;;;;3174492153
52;900285758;C.I. NUTREO S.A.S.;;;1020768423;angie garcia;angie garcia;CO;CUN;CRA 14 117-14 APTO 501 ED SAKURA;;;;;;;;;;3203021250
53;900285758;C.I. NUTREO S.A.S.;;;21832853;Sandra Garces;Sandra Garces;CO;CUN;CR 17 88 12 APTO 501 ED LOS PALMOS;;;;;;;;;;3165251485
54;900285758;C.I. NUTREO S.A.S.;;;27787645;HELENA Mantilla Sandoval;HELENA Mantilla Sandoval;CO;NOR;CR 67-16 CL REAL ;;;;;;;;;;3102471367
55;900285758;C.I. NUTREO S.A.S.;;;63553585;Diana Ibáñez;Diana Ibáñez;CO;CUN;CRA 7C 127-79 APTO 301 ED CHATEL BELLA SUIZA;;;;;;;;;;3178553034
56;900285758;C.I. NUTREO S.A.S.;;;777271;ADRIANA ARAEZ;ADRIANA ARAEZ;CO;ATL;CL 91 49C-46 ED OCEANIA APTO 604 ;;;;;;;;;;3174385497
57;900285758;C.I. NUTREO S.A.S.;;;79332358;Edgar Martínez;Edgar Martínez;CO;CUN;CR 69 D 3-80 SUR CJ RECODO DE SAN FELIPE EN 1 - TR 2 - AP 707 EN 1 - TR 2 - AP 707;;;;;;;;;;3144558798
58;900285758;C.I. NUTREO S.A.S.;;;20612924;Ana Elena Bohorquez Cruz;Ana Elena Bohorquez Cruz;CO;CUN;CL 18 10-45 APTO 201 CENTRO;;;;;;;;;;3163392058
59;900285758;C.I. NUTREO S.A.S.;;;52999896;Angela Yanes;Angela Yanes;CO;CUN;CL 93 17 23 904;;;;;;;;;;3203365145
60;900285758;C.I. NUTREO S.A.S.;;;1015432615;Camila Rojas;Camila Rojas;CO;CUN;CR 57 NUMERO 119 A 60 TR 1 APTO 1602;;;;;;;;;;3046306624
61;900285758;C.I. NUTREO S.A.S.;;;22476797;ANDREA DEL PILAR GARCIA IMITOLA;ANDREA DEL PILAR GARCIA IMITOLA;CO;CUN;CL 22D N 69F-73 IN 24 APTO 301 MZD BR CARLOS LLERAS;;;;;;;;;;3166942818
62;900285758;C.I. NUTREO S.A.S.;;;1026572011;Andres Gomez;Andres Gomez;CO;CUN;CR 9BIS 97-06 1004;;;;;;;;;;3007943608
63;900285758;C.I. NUTREO S.A.S.;;;94454045;carlos humberto arias;carlos humberto arias;CO;VAC;CRA 49 14B 08 ;;;;;;;;;;3183449010
64;900285758;C.I. NUTREO S.A.S.;;;28061062;JORGE VIDAL;JORGE VIDAL;CO;SAN;CR 24 N 55-10 BR GALAN;;;;;;;;;;3132108889
65;900285758;C.I. NUTREO S.A.S.;;;1098738822;ITZEL DAYANNA MEDINA MORENO;ITZEL DAYANNA MEDINA MORENO;CO;SAN;CRA 14 N 103B -32 APTO 401;;;;;;;;;;3208515393
66;900285758;C.I. NUTREO S.A.S.;;;1010172964;Nathalia Suarez;Nathalia Suarez;CO;CUN;CR 55 174 B - 39 VILLA DEL PRADO CS BLANCA;;;;;;;;;;3106602271
67;900285758;C.I. NUTREO S.A.S.;;;63342626;Duva Rodríguez Medina;Duva Rodríguez Medina;CO;SAN;CRA 28 19-53 UN RESIDENCIAL COLÓN BL 5 AP 102;;;;;;;;;;3107737404
68;900285758;C.I. NUTREO S.A.S.;;;31285210;Amparo Escobar;Amparo Escobar;CO;VAC;KRA 68 20-30 TR 5 APTO 601SENDEROS DEL LIMONAR LA HACIENDA;;;;;;;;;;3155709827
69;900285758;C.I. NUTREO S.A.S.;;;32256052;Ana Lucía Montoya;Ana Lucía Montoya;CO;ANT;CR 68B CIR 3 - 110 PRIMER PISO - BR: SAN JOAQUÍN;;;;;;;;;;3104144080
70;900285758;C.I. NUTREO S.A.S.;;;13845807;Jaime Pinto;Jaime Pinto;CO;CUN;CL 131 78A - 61 TR 5 APTO 202;;;;;;;;;;3124500080
71;900285758;C.I. NUTREO S.A.S.;;;20730371;Mary luz Salamanca Sánchez;Mary luz Salamanca Sánchez;CO;CUN;KRA 72 N 24 B - 34 TR 1 APA 902 GRAN RESERVA NAVARRA TR 1 APA 902;;;;;;;;;;3114724072
72;900285758;C.I. NUTREO S.A.S.;;;481927;cristina cerviño;cristina cerviño;CO;CUN;CR 8 89-16 APTO 202 TR 2;;;;;;;;;;3185159786
73;900285758;C.I. NUTREO S.A.S.;;;1019068186;MARIA CAMILA RODRIGUEZ;MARIA CAMILA RODRIGUEZ;CO;CUN;CR 51 103B-57 APTO 401;;;;;;;;;;3043569654
74;900285758;C.I. NUTREO S.A.S.;;;22591299;Karina Alvarado Caro;Karina Alvarado Caro;CO;ATL;CR 43 NO 98 - 106 APTO 602 TR 2 EDIF HORIZONTES DE MIRAMAR TR 2 APTO 602;;;;;;;;;;3188754170
75;900285758;C.I. NUTREO S.A.S.;;;91499896;Juan Guillermo Rojas Puyana;Juan Guillermo Rojas Puyana;CO;CUN;CRA 58C 147-81 TR 1 APTO 602;;;;;;;;;;3154566177
76;900285758;C.I. NUTREO S.A.S.;;;1032433163;cristina zuluaga;cristina zuluaga;CO;CUN;CL 175 78-80 CS 2 CJ ASUASAN SAN JOSE DE BAVARIA;;;;;;;;;;3176688664
77;900285758;C.I. NUTREO S.A.S.;;;52110579;Luz Leyder Melo;Luz Leyder Melo;CO;CUN;CRA73A 56A 80 TR2 APTO 704;;;;;;;;;;3008244749
78;900285758;C.I. NUTREO S.A.S.;;;5830811;Plutarco Rojas Hernandez;Plutarco Rojas Hernandez;CO;TOL;CL 8 NO 5-20 ;;;;;;;;;;3125234132
79;900285758;C.I. NUTREO S.A.S.;;;66812573;Janneth Bolivar;Janneth Bolivar;CO;VAC;CL 12ª 53-51 APTO 101C UN COOMEVA TERRANOVA BR SANTA A ITA 101C;;;;;;;;;;3175107833
80;900285758;C.I. NUTREO S.A.S.;;;41898358;DANELLY TORRES TOBAR;DANELLY TORRES TOBAR;CO;CUN;CL 159 54 - 69 CR PORTUS TR 3 APTO 204 BR ALEJANDRÍA;;;;;;;;;;3188280077
81;900285758;C.I. NUTREO S.A.S.;;;52617949;Eliana Marcela Puerto Larrota;Eliana Marcela Puerto Larrota;CO;CUN;AVCL2643-89 APT 402 ED LYDA QUINTAPAREDES APTO 402;;;;;;;;;;3152217309
82;900285758;C.I. NUTREO S.A.S.;;;79360046;Manuel German Leon;Manuel German Leon;CO;CUN;CR 52 B 40A 28 SUR BR ALQUERIA;;;;;;;;;;3134197434
83;900285758;C.I. NUTREO S.A.S.;;;43679689;Ligiamaria De Jaramillo;Ligiamaria De Jaramillo;CO;ANT;CR 27AA - 37B SUR 60 ENTREPINOS AP 1206 ENVIGADO AP 1206 ENTREPINOS;;;;;;;;;;3015130875
84;900285758;C.I. NUTREO S.A.S.;;;32257196;Marta Cecilia Botero;Marta Cecilia Botero;CO;ANT;CL 20SUR 41AA-161 PORTAL DE LA FRONTERA APTO 1102;;;;;;;;;;3147006960
85;900285758;C.I. NUTREO S.A.S.;;;1136884287;Lina Wilchez;Lina Wilchez;CO;CUN;CLL 118 15A - 45 APT 501;;;;;;;;;;3185726158
86;900285758;C.I. NUTREO S.A.S.;;;1014277292;Lina Maldonado;Lina Maldonado;CO;CUN;CR 91 99A 34 INT 5 APT 404;;;;;;;;;;3125359475
87;900285758;C.I. NUTREO S.A.S.;;;1016049021;Maria Kamila Alarcon Mera;Maria Kamila Alarcon Mera;CO;CUN;CL 25G 74B-50 TR 1 APTO 502;;;;;;;;;;3183836923
88;900285758;C.I. NUTREO S.A.S.;;;51936573;Karina Ropero Pacheco;Karina Ropero Pacheco;CO;NOR;CL1035-115 ED 2 504;;;;;;;;;;3174395706
89;900285758;C.I. NUTREO S.A.S.;;;66833359;Aura Chávez Alvarez;Aura Chávez Alvarez;CO;VAC;CRA41A39-51 BR ANTONIO NARIÑO CS;;;;;;;;;;3004118809
