;No Compra;SKU(producto);Cantidad;# Centro Costos Facturacion;#Centro Costos Envio;# Direccion Envio;UNO;DOS;TRES
0;30398;T8.02.000548;1;1144042793;1144042793;1144042793;MEDELLIN;;
1;30398;T8.02.000546;1;1144042793;1144042793;1144042793;MEDELLIN;;
2;30397;T8.02.000546;1;18401549;18401549;18401549;MEDELLIN;;
3;30396;T8.02.000554;1;1018489821;1018489821;1018489821;BOGOTA;;
4;30396;T8.02.000554;1;1018489821;1018489821;1018489821;BOGOTA;;
5;30396;T8.02.000556;1;1018489821;1018489821;1018489821;BOGOTA;;
6;30396;T8.02.000556;1;1018489821;1018489821;1018489821;BOGOTA;;
7;30396;T8.02.000557;1;1018489821;1018489821;1018489821;BOGOTA;;
8;30396;T8.02.000557;1;1018489821;1018489821;1018489821;BOGOTA;;
9;30396;T8.02.000558;1;1018489821;1018489821;1018489821;BOGOTA;;
10;30396;T8.02.000558;1;1018489821;1018489821;1018489821;BOGOTA;;
11;30396;T8.00.002408;1;1018489821;1018489821;1018489821;BOGOTA;;
12;30393;T8.02.000546;1;10525416;10525416;10525416;MEDELLIN;;
13;30393;T8.02.000545;1;10525416;10525416;10525416;MEDELLIN;;
14;30392;T8.02.000546;1;52869177;52869177;52869177;BOGOTA;;
15;30392;T8.02.000547;1;52869177;52869177;52869177;BOGOTA;;
16;30391;T8.02.000555;1;1026256079;1026256079;1026256079;BOGOTA;;
17;30391;T8.02.000553;1;1026256079;1026256079;1026256079;BOGOTA;;
18;30391;T8.00.002412;1;1026256079;1026256079;1026256079;BOGOTA;;
19;30390;T8.02.000547;1;1020735342;1020735342;1020735342;BOGOTA;;
20;30388;T8.00.002398;1;67020631;67020631;67020631;MEDELLIN;;
21;30387;T8.02.000546;1;1073152849;1073152849;1073152849;BOGOTA;;
22;30387;T8.02.000545;1;1073152849;1073152849;1073152849;BOGOTA;;
23;30387;T8.00.002398;1;1073152849;1073152849;1073152849;BOGOTA;;
24;30387;T8.02.000547;1;1073152849;1073152849;1073152849;BOGOTA;;
25;30387;T8.02.000546;1;1073152849;1073152849;1073152849;BOGOTA;;
26;30386;T8.02.000548;1;1052378258;1052378258;1052378258;BOGOTA;;
27;30385;T8.02.000547;1;117487349;117487349;117487349;BOGOTA;;
28;30385;T8.02.000545;1;117487349;117487349;117487349;BOGOTA;;
29;30385;T8.02.000547;1;117487349;117487349;117487349;BOGOTA;;
30;30383;T8.02.000546;1;94153438;94153438;94153438;MEDELLIN;;
31;30383;T8.02.000545;1;94153438;94153438;94153438;MEDELLIN;;
32;30383;T8.00.002398;1;94153438;94153438;94153438;MEDELLIN;;
33;30380;T8.02.000546;1;80852331;80852331;80852331;BOGOTA;;
34;30380;T8.00.002398;1;80852331;80852331;80852331;BOGOTA;;
35;30377;T8.02.000555;1;1020815616;1020815616;1020815616;BOGOTA;;
36;30377;T8.02.000553;1;1020815616;1020815616;1020815616;BOGOTA;;
37;30377;T8.00.002412;1;1020815616;1020815616;1020815616;BOGOTA;;
38;30375;T8.02.000547;3;1062314250;1062314250;1062314250;MEDELLIN;;
39;30373;T8.02.000548;1;1018425801;1018425801;1018425801;BOGOTA;;
40;30373;T8.02.000546;1;1018425801;1018425801;1018425801;BOGOTA;;
41;30369;T8.02.000548;1;22585105;22585105;22585105;MEDELLIN;;
42;30367;T8.02.000547;1;53083744;53083744;53083744;BOGOTA;;
43;30366;T8.02.000547;1;1014178465;1014178465;1014178465;BOGOTA;;
44;30364;T8.02.000546;1;39689291;39689291;39689291;BOGOTA;;
45;30364;T8.02.000548;1;39689291;39689291;39689291;BOGOTA;;
46;30361;T8.00.002401;1;1032423770;1032423770;1032423770;MEDELLIN;;
47;30357;T8.02.000548;1;52492512;52492512;52492512;BOGOTA;;
48;30357;T8.02.000545;1;52492512;52492512;52492512;BOGOTA;;
49;30356;T8.02.000545;3;52701598;52701598;52701598;BOGOTA;;
50;30356;T8.02.000546;3;52701598;52701598;52701598;BOGOTA;;
51;30348;T8.02.000547;1;52483562;52483562;52483562;BOGOTA;;
52;30345;T8.02.000546;1;75104810;75104810;75104810;MEDELLIN;;
53;30345;T8.00.002398;1;75104810;75104810;75104810;MEDELLIN;;
54;30343;T8.02.000547;2;1130637416;1130637416;1130637416;BOGOTA;;
55;30341;T8.02.000545;1;1026265993;1026265993;1026265993;BOGOTA;;
56;30341;T8.02.000547;1;1026265993;1026265993;1026265993;BOGOTA;;
57;30340;T8.02.000548;1;21832853;21832853;21832853;BOGOTA;;
58;30337;T8.02.000555;1;1020742879;1020742879;1020742879;BOGOTA;;
59;30337;T8.02.000553;1;1020742879;1020742879;1020742879;BOGOTA;;
60;30337;T8.00.002412;1;1020742879;1020742879;1020742879;BOGOTA;;
61;30337;T8.00.002398;1;1020742879;1020742879;1020742879;BOGOTA;;
62;30337;T8.00.002447;1;1020742879;1020742879;1020742879;BOGOTA;;
63;30336;T8.02.000546;2;92187864;92187864;92187864;MEDELLIN;;
64;30335;T8.02.000547;1;29678325;29678325;29678325;MEDELLIN;;
65;30335;T8.02.000546;1;29678325;29678325;29678325;MEDELLIN;;
66;30334;T8.02.000547;1;28604441;28604441;28604441;BOGOTA;;
67;30333;T8.02.000548;1;66809230;66809230;66809230;MEDELLIN;;
68;30333;T8.02.000546;1;66809230;66809230;66809230;MEDELLIN;;
69;30331;T8.02.000546;2;30401713;30401713;30401713;BOGOTA;;
70;30329;T8.02.000548;1;52998411;52998411;52998411;BOGOTA;;
71;30329;T8.02.000555;1;52998411;52998411;52998411;BOGOTA;;
72;30329;T8.02.000553;1;52998411;52998411;52998411;BOGOTA;;
73;30329;T8.00.002412;1;52998411;52998411;52998411;BOGOTA;;
74;30329;T8.00.002398;1;52998411;52998411;52998411;BOGOTA;;
75;30329;T8.00.002447;1;52998411;52998411;52998411;BOGOTA;;
76;30327;T8.02.000547;1;52265281;52265281;52265281;BOGOTA;;
77;30326;T8.02.000547;4;1013628078;1013628078;1013628078;BOGOTA;;
78;30324;T8.02.000547;1;1020725657;1020725657;1020725657;BOGOTA;;
79;30322;T8.00.002401;1;79276196;79276196;79276196;BOGOTA;;
80;30321;T8.02.000548;1;20956626;20956626;20956626;BOGOTA;;
81;30320;T8.02.000547;1;1143869846;1143869846;1143869846;MEDELLIN;;
82;30320;T8.02.000545;1;1143869846;1143869846;1143869846;MEDELLIN;;
83;30319;T8.02.000546;1;1019007851;1019007851;1019007851;BOGOTA;;
84;30318;T8.02.000546;1;63343265;63343265;63343265;MEDELLIN;;
85;30316;T8.02.000545;1;30331263;30331263;30331263;BOGOTA;;
86;30314;T8.00.002402;1;37513057;37513057;37513057;MEDELLIN;;
87;30314;T8.00.002401;1;37513057;37513057;37513057;MEDELLIN;;
88;30312;T8.02.000547;2;38600380;38600380;38600380;MEDELLIN;;
89;30309;T8.02.000548;2;1022328170;1022328170;1022328170;BOGOTA;;
90;30308;T8.02.000548;1;1020768423;1020768423;1020768423;BOGOTA;;
91;30308;T8.02.000547;1;1020768423;1020768423;1020768423;BOGOTA;;
92;30307;T8.02.000547;1;1012324967;1012324967;1012324967;BOGOTA;;
93;30306;T8.02.000545;1;21832853;21832853;21832853;BOGOTA;;
94;30302;T8.02.000547;2;27787645;27787645;27787645;MEDELLIN;;
95;30302;T8.02.000546;1;27787645;27787645;27787645;MEDELLIN;;
96;30301;T8.02.000548;1;63553585;63553585;63553585;BOGOTA;;
97;30299;T8.00.002396;1;777271;777271;777271;MEDELLIN;;
98;30299;T8.02.000548;1;777271;777271;777271;MEDELLIN;;
99;30298;T8.02.000548;1;79332358;79332358;79332358;BOGOTA;;
100;30298;T8.02.000545;1;79332358;79332358;79332358;BOGOTA;;
101;30298;T8.02.000547;1;79332358;79332358;79332358;BOGOTA;;
102;30298;T8.02.000546;1;79332358;79332358;79332358;BOGOTA;;
103;30296;T8.02.000547;1;52999896;52999896;52999896;BOGOTA;;
104;30295;T8.02.000554;1;1015432615;1015432615;1015432615;BOGOTA;;
105;30295;T8.02.000554;1;1015432615;1015432615;1015432615;BOGOTA;;
106;30295;T8.02.000556;1;1015432615;1015432615;1015432615;BOGOTA;;
107;30295;T8.02.000556;1;1015432615;1015432615;1015432615;BOGOTA;;
108;30295;T8.02.000557;1;1015432615;1015432615;1015432615;BOGOTA;;
109;30295;T8.02.000557;1;1015432615;1015432615;1015432615;BOGOTA;;
110;30295;T8.02.000558;1;1015432615;1015432615;1015432615;BOGOTA;;
111;30295;T8.02.000558;1;1015432615;1015432615;1015432615;BOGOTA;;
112;30295;T8.00.002409;1;1015432615;1015432615;1015432615;BOGOTA;;
113;30295;T8.02.000547;1;1015432615;1015432615;1015432615;BOGOTA;;
114;30295;T8.02.000546;1;1015432615;1015432615;1015432615;BOGOTA;;
115;30294;T8.02.000548;1;22476797;22476797;22476797;BOGOTA;;
116;30294;T8.02.000546;1;22476797;22476797;22476797;BOGOTA;;
117;30290;T8.02.000546;1;1026572011;1026572011;1026572011;BOGOTA;;
118;30290;T8.02.000545;1;1026572011;1026572011;1026572011;BOGOTA;;
119;30289;T8.02.000547;1;94454045;94454045;94454045;MEDELLIN;;
120;30288;T8.02.000547;1;67002986;67002986;67002986;BOGOTA;;
121;30287;T8.02.000548;1;80812155;80812155;80812155;MEDELLIN;;
122;30282;T8.02.000546;1;1072652937;1072652937;1072652937;BOGOTA;;
123;30281;T8.02.000547;2;28061062;28061062;28061062;MEDELLIN;;
124;30281;T8.02.000548;1;28061062;28061062;28061062;MEDELLIN;;
125;30280;T8.02.000547;1;1098738822;1098738822;1098738822;MEDELLIN;;
126;30279;T8.02.000547;2;1010172964;1010172964;1010172964;BOGOTA;;
127;30277;T8.02.000547;1;31285210;31285210;31285210;MEDELLIN;;
128;30276;T8.00.002402;1;32256052;32256052;32256052;MEDELLIN;;
129;30276;T8.00.002401;1;32256052;32256052;32256052;MEDELLIN;;
130;30276;T8.00.002398;1;32256052;32256052;32256052;MEDELLIN;;
131;30275;T8.02.000546;1;13845807;13845807;13845807;BOGOTA;;
132;30272;T8.02.000547;1;20730371;20730371;20730371;BOGOTA;;
133;30271;T8.02.000555;1;481927;481927;481927;BOGOTA;;
134;30271;T8.02.000553;1;481927;481927;481927;BOGOTA;;
135;30271;T8.00.002412;1;481927;481927;481927;BOGOTA;;
136;30270;T8.02.000548;1;1019068186;1019068186;1019068186;BOGOTA;;
137;30270;T8.02.000546;1;1019068186;1019068186;1019068186;BOGOTA;;
138;30267;T8.02.000547;1;22591299;22591299;22591299;MEDELLIN;;
139;30265;T8.00.002401;1;91499896;91499896;91499896;BOGOTA;;
140;30264;T8.02.000546;1;1032433163;1032433163;1032433163;BOGOTA;;
141;30260;T8.02.000547;1;52110579;52110579;52110579;BOGOTA;;
142;30260;T8.02.000546;1;52110579;52110579;52110579;BOGOTA;;
143;30258;T8.02.000546;1;5830811;5830811;5830811;BOGOTA;;
144;30258;T8.02.000545;1;5830811;5830811;5830811;BOGOTA;;
145;30257;T8.02.000548;1;66812573;66812573;66812573;MEDELLIN;;
146;30256;T8.02.000546;1;41898358;41898358;41898358;BOGOTA;;
147;30254;T8.02.000547;2;52617949;52617949;52617949;BOGOTA;;
148;30252;T8.02.000547;1;79360046;79360046;79360046;BOGOTA;;
149;30252;T8.02.000546;1;79360046;79360046;79360046;BOGOTA;;
150;30249;T8.02.000547;1;43679689;43679689;43679689;MEDELLIN;;
151;30249;T8.00.002398;3;43679689;43679689;43679689;MEDELLIN;;
152;30245;T8.02.000545;1;1136884287;1136884287;1136884287;BOGOTA;;
153;30244;T8.02.000547;1;1014277292;1014277292;1014277292;BOGOTA;;
154;30134;T8.02.000547;2;1016049021;1016049021;1016049021;BOGOTA;;
155;29758;T8.02.000548;1;51936573;51936573;51936573;MEDELLIN;;
156;29758;T8.02.000546;1;51936573;51936573;51936573;MEDELLIN;;
157;29273;T8.02.000546;1;66833359;66833359;66833359;MEDELLIN;;
